%YAML 1.1
%TAG !u! tag:unity3d.com,2011:
--- !u!1001 &100100000
Prefab:
  m_ObjectHideFlags: 1
  serializedVersion: 2
  m_Modification:
    m_TransformParent: {fileID: 0}
    m_Modifications: []
    m_RemovedComponents: []
  m_ParentPrefab: {fileID: 0}
  m_RootGameObject: {fileID: 1210197143520558}
  m_IsPrefabParent: 1
--- !u!1 &1210197143520558
GameObject:
  m_ObjectHideFlags: 0
  m_PrefabParentObject: {fileID: 0}
  m_PrefabInternal: {fileID: 100100000}
  serializedVersion: 5
  m_Component:
  - component: {fileID: 4004698982322842}
  - component: {fileID: 114009665796737842}
  m_Layer: 0
  m_Name: Level 2 Music
  m_TagString: Untagged
  m_Icon: {fileID: 0}
  m_NavMeshLayer: 0
  m_StaticEditorFlags: 0
  m_IsActive: 1
--- !u!4 &4004698982322842
Transform:
  m_ObjectHideFlags: 1
  m_PrefabParentObject: {fileID: 0}
  m_PrefabInternal: {fileID: 100100000}
  m_GameObject: {fileID: 1210197143520558}
  m_LocalRotation: {x: 0, y: 0, z: 0, w: 1}
  m_LocalPosition: {x: 8.148521, y: -2.0414772, z: 0.082978934}
  m_LocalScale: {x: 1, y: 1, z: 1}
  m_Children: []
  m_Father: {fileID: 0}
  m_RootOrder: 0
  m_LocalEulerAnglesHint: {x: 0, y: 0, z: 0}
--- !u!114 &114009665796737842
MonoBehaviour:
  m_ObjectHideFlags: 1
  m_PrefabParentObject: {fileID: 0}
  m_PrefabInternal: {fileID: 100100000}
  m_GameObject: {fileID: 1210197143520558}
  m_Enabled: 1
  m_EditorHideFlags: 0
  m_Script: {fileID: 11500000, guid: bae0a6fe4cbea4797bce4d30210a5fa9, type: 3}
  m_Name: 
  m_EditorClassIdentifier: 
  file: {fileID: 8300000, guid: ed8cb515684084b2b8c702895460a826, type: 3}
  mixer: {fileID: 0}
  isOneShot: 1
  loop: 1
  volume: 0.5
  pitch: 1
  priority: 0
  distortionFilterSettings:
    overrideDefault: 0
    distortionLevel: 0.5
  echoFilterSettings:
    overrideDefault: 0
    delay: 500
    decayRatio: 0.5
    wetMix: 1
    dryMix: 1
  highPassFilterSettings:
    overrideDefault: 0
    cutoffFrequency: 5000
    highpassResonanceQ: 1
  lowPassFilterSettings:
    overrideDefault: 0
    cutoffFrequency: 5000
    lowpassResonanceQ: 1
  reverbFilterSettings:
    overrideDefault: 0
    dryLevel: 0
    room: 0
    roomHF: 0
    roomLF: 0
    decayTime: 1
    decayHFRatio: 0.5
    reflectionsLevel: -10000
    reflectionsDelay: 0
    reverbLevel: 0
    reverbDelay: 0.04
    hfReference: 5000
    lfReference: 250
    diffusion: 100
    density: 100
