%YAML 1.1
%TAG !u! tag:unity3d.com,2011:
--- !u!1001 &100100000
Prefab:
  m_ObjectHideFlags: 1
  serializedVersion: 2
  m_Modification:
    m_TransformParent: {fileID: 0}
    m_Modifications: []
    m_RemovedComponents: []
  m_ParentPrefab: {fileID: 0}
  m_RootGameObject: {fileID: 1750713882204880}
  m_IsPrefabParent: 1
--- !u!1 &1750713882204880
GameObject:
  m_ObjectHideFlags: 0
  m_PrefabParentObject: {fileID: 0}
  m_PrefabInternal: {fileID: 100100000}
  serializedVersion: 5
  m_Component:
  - component: {fileID: 4117720222622620}
  - component: {fileID: 114539846573271522}
  m_Layer: 0
  m_Name: theScientificConspiracyTheorist
  m_TagString: Untagged
  m_Icon: {fileID: 0}
  m_NavMeshLayer: 0
  m_StaticEditorFlags: 0
  m_IsActive: 1
--- !u!4 &4117720222622620
Transform:
  m_ObjectHideFlags: 1
  m_PrefabParentObject: {fileID: 0}
  m_PrefabInternal: {fileID: 100100000}
  m_GameObject: {fileID: 1750713882204880}
  m_LocalRotation: {x: -0, y: -0, z: -0, w: 1}
  m_LocalPosition: {x: 0, y: 0, z: 0}
  m_LocalScale: {x: 1, y: 1, z: 1}
  m_Children: []
  m_Father: {fileID: 0}
  m_RootOrder: 0
  m_LocalEulerAnglesHint: {x: 0, y: 0, z: 0}
--- !u!114 &114539846573271522
MonoBehaviour:
  m_ObjectHideFlags: 1
  m_PrefabParentObject: {fileID: 0}
  m_PrefabInternal: {fileID: 100100000}
  m_GameObject: {fileID: 1750713882204880}
  m_Enabled: 1
  m_EditorHideFlags: 0
  m_Script: {fileID: 11500000, guid: 68332dd6facf31749b2d501b3fc63561, type: 3}
  m_Name: 
  m_EditorClassIdentifier: 
  arrayOfCards:
  - {fileID: 1603590229611376, guid: 92ae9e8035e2df040b3384e980d6d57c, type: 2}
  - {fileID: 1603590229611376, guid: 92ae9e8035e2df040b3384e980d6d57c, type: 2}
  - {fileID: 1603590229611376, guid: 92ae9e8035e2df040b3384e980d6d57c, type: 2}
  - {fileID: 1603590229611376, guid: 92ae9e8035e2df040b3384e980d6d57c, type: 2}
  - {fileID: 1603590229611376, guid: 3787fd8d6a9e72d45b6c9db798bf6dcb, type: 2}
  - {fileID: 1603590229611376, guid: 3787fd8d6a9e72d45b6c9db798bf6dcb, type: 2}
  - {fileID: 1603590229611376, guid: 3787fd8d6a9e72d45b6c9db798bf6dcb, type: 2}
  - {fileID: 1603590229611376, guid: 3787fd8d6a9e72d45b6c9db798bf6dcb, type: 2}
  - {fileID: 1603590229611376, guid: 342617e3ff6431e41b4da1f34c28f1b8, type: 2}
  - {fileID: 1603590229611376, guid: 342617e3ff6431e41b4da1f34c28f1b8, type: 2}
  - {fileID: 1603590229611376, guid: 342617e3ff6431e41b4da1f34c28f1b8, type: 2}
  - {fileID: 1603590229611376, guid: 342617e3ff6431e41b4da1f34c28f1b8, type: 2}
  - {fileID: 1603590229611376, guid: c132ed7eea435334dabba4d4d28cd221, type: 2}
  - {fileID: 1603590229611376, guid: c132ed7eea435334dabba4d4d28cd221, type: 2}
  - {fileID: 1603590229611376, guid: c132ed7eea435334dabba4d4d28cd221, type: 2}
  - {fileID: 1603590229611376, guid: c132ed7eea435334dabba4d4d28cd221, type: 2}
  - {fileID: 1603590229611376, guid: 32f661222e9951842936621c11b54085, type: 2}
  - {fileID: 1603590229611376, guid: 32f661222e9951842936621c11b54085, type: 2}
  - {fileID: 1603590229611376, guid: 32f661222e9951842936621c11b54085, type: 2}
  - {fileID: 1603590229611376, guid: 32f661222e9951842936621c11b54085, type: 2}
  - {fileID: 1603590229611376, guid: 41ed524a414f3fc45955fe65f1df115a, type: 2}
  - {fileID: 1603590229611376, guid: 41ed524a414f3fc45955fe65f1df115a, type: 2}
  - {fileID: 1603590229611376, guid: d9549e53c3ca8af4db6b3f26963e0130, type: 2}
  - {fileID: 1603590229611376, guid: d9549e53c3ca8af4db6b3f26963e0130, type: 2}
  - {fileID: 1603590229611376, guid: dac71bf8e6a60cb41b0b66d24b2862c7, type: 2}
  - {fileID: 1603590229611376, guid: dac71bf8e6a60cb41b0b66d24b2862c7, type: 2}
  - {fileID: 1603590229611376, guid: dac71bf8e6a60cb41b0b66d24b2862c7, type: 2}
  - {fileID: 1603590229611376, guid: 4fac52382b5317a4dad8ee034cd0da67, type: 2}
  - {fileID: 1603590229611376, guid: 4fac52382b5317a4dad8ee034cd0da67, type: 2}
  - {fileID: 1603590229611376, guid: 4fac52382b5317a4dad8ee034cd0da67, type: 2}
  - {fileID: 1603590229611376, guid: 4fac52382b5317a4dad8ee034cd0da67, type: 2}
  - {fileID: 1603590229611376, guid: c615c14fa46743145b9156fc07e7e5e8, type: 2}
  - {fileID: 1603590229611376, guid: c615c14fa46743145b9156fc07e7e5e8, type: 2}
  - {fileID: 1603590229611376, guid: c615c14fa46743145b9156fc07e7e5e8, type: 2}
  - {fileID: 1603590229611376, guid: c615c14fa46743145b9156fc07e7e5e8, type: 2}
  - {fileID: 1603590229611376, guid: 12380f068a83bb24983bad4c82b0deb3, type: 2}
  - {fileID: 1603590229611376, guid: 12380f068a83bb24983bad4c82b0deb3, type: 2}
  - {fileID: 1603590229611376, guid: 12380f068a83bb24983bad4c82b0deb3, type: 2}
  - {fileID: 1603590229611376, guid: 5c1c012c8b19da342b71d0336996ce3c, type: 2}
  - {fileID: 1603590229611376, guid: 5c1c012c8b19da342b71d0336996ce3c, type: 2}
