%YAML 1.1
%TAG !u! tag:unity3d.com,2011:
--- !u!1001 &100100000
Prefab:
  m_ObjectHideFlags: 1
  serializedVersion: 2
  m_Modification:
    m_TransformParent: {fileID: 0}
    m_Modifications: []
    m_RemovedComponents: []
  m_ParentPrefab: {fileID: 0}
  m_RootGameObject: {fileID: 1568278790575474}
  m_IsPrefabParent: 1
--- !u!1 &1568278790575474
GameObject:
  m_ObjectHideFlags: 0
  m_PrefabParentObject: {fileID: 0}
  m_PrefabInternal: {fileID: 100100000}
  serializedVersion: 5
  m_Component:
  - component: {fileID: 4152467004167198}
  - component: {fileID: 114145608856983242}
  m_Layer: 0
  m_Name: DeckOfCards
  m_TagString: Untagged
  m_Icon: {fileID: 0}
  m_NavMeshLayer: 0
  m_StaticEditorFlags: 0
  m_IsActive: 1
--- !u!4 &4152467004167198
Transform:
  m_ObjectHideFlags: 1
  m_PrefabParentObject: {fileID: 0}
  m_PrefabInternal: {fileID: 100100000}
  m_GameObject: {fileID: 1568278790575474}
  m_LocalRotation: {x: -0, y: -0, z: -0, w: 1}
  m_LocalPosition: {x: 0, y: 0, z: 0}
  m_LocalScale: {x: 0.15, y: 0.15, z: 1}
  m_Children: []
  m_Father: {fileID: 0}
  m_RootOrder: 0
  m_LocalEulerAnglesHint: {x: 0, y: 0, z: 0}
--- !u!114 &114145608856983242
MonoBehaviour:
  m_ObjectHideFlags: 1
  m_PrefabParentObject: {fileID: 0}
  m_PrefabInternal: {fileID: 100100000}
  m_GameObject: {fileID: 1568278790575474}
  m_Enabled: 1
  m_EditorHideFlags: 0
  m_Script: {fileID: 11500000, guid: 68332dd6facf31749b2d501b3fc63561, type: 3}
  m_Name: 
  m_EditorClassIdentifier: 
  arrayOfCards:
  - {fileID: 1603590229611376, guid: 9631785799f924e4884839fe8f6866c1, type: 2}
  - {fileID: 1603590229611376, guid: 12380f068a83bb24983bad4c82b0deb3, type: 2}
  - {fileID: 1603590229611376, guid: eeed35533d8b5174694bbc9131ac420d, type: 2}
  - {fileID: 1603590229611376, guid: 9631785799f924e4884839fe8f6866c1, type: 2}
  - {fileID: 1603590229611376, guid: 5ac6d45eb029fc74ead72089f031b776, type: 2}
  - {fileID: 1603590229611376, guid: 342617e3ff6431e41b4da1f34c28f1b8, type: 2}
  - {fileID: 1603590229611376, guid: 766c5a11f1f9e964f9fa53d36861207f, type: 2}
  - {fileID: 1603590229611376, guid: 5c1c012c8b19da342b71d0336996ce3c, type: 2}
  - {fileID: 1603590229611376, guid: 9631785799f924e4884839fe8f6866c1, type: 2}
  - {fileID: 1603590229611376, guid: 4fac52382b5317a4dad8ee034cd0da67, type: 2}
  - {fileID: 1603590229611376, guid: 5c1c012c8b19da342b71d0336996ce3c, type: 2}
  - {fileID: 1603590229611376, guid: 533351df3e120f04aa78026ec949e5a6, type: 2}
  - {fileID: 1603590229611376, guid: 92ae9e8035e2df040b3384e980d6d57c, type: 2}
  - {fileID: 1603590229611376, guid: 5c1c012c8b19da342b71d0336996ce3c, type: 2}
  - {fileID: 1603590229611376, guid: 766c5a11f1f9e964f9fa53d36861207f, type: 2}
  - {fileID: 1603590229611376, guid: 5ac6d45eb029fc74ead72089f031b776, type: 2}
  - {fileID: 1603590229611376, guid: be7c66f688ad35942aeba3662743156b, type: 2}
  - {fileID: 1603590229611376, guid: 54f724e20e39c29438e2bcaaa6530809, type: 2}
  - {fileID: 1603590229611376, guid: d73e76aa13933c04e94503f75e24abb5, type: 2}
  - {fileID: 1603590229611376, guid: 5c1c012c8b19da342b71d0336996ce3c, type: 2}
  - {fileID: 1603590229611376, guid: f085f065f1217874bb3b57040493f7d4, type: 2}
  - {fileID: 1603590229611376, guid: c132ed7eea435334dabba4d4d28cd221, type: 2}
  - {fileID: 1603590229611376, guid: 4fac52382b5317a4dad8ee034cd0da67, type: 2}
  - {fileID: 1603590229611376, guid: 92ae9e8035e2df040b3384e980d6d57c, type: 2}
  - {fileID: 1603590229611376, guid: 41ed524a414f3fc45955fe65f1df115a, type: 2}
  - {fileID: 1603590229611376, guid: 8ba28d8400c563542b1c63a1aef2d9ef, type: 2}
  - {fileID: 1603590229611376, guid: c132ed7eea435334dabba4d4d28cd221, type: 2}
  - {fileID: 1603590229611376, guid: be7c66f688ad35942aeba3662743156b, type: 2}
  - {fileID: 1603590229611376, guid: 8ba28d8400c563542b1c63a1aef2d9ef, type: 2}
  - {fileID: 1603590229611376, guid: 4fac52382b5317a4dad8ee034cd0da67, type: 2}
